Abastecimiento,pedro
Abastecimiento,juan
Abastecimiento,diego
Abastecimiento,carlos
Abastecimiento,javier
Abastecimiento,roberto
Abastecimiento,victor
TIC,sebastian
TIC,jose luis
TIC,andres
TIC,bernardo
TIC,hugo
TIC,virginia
TIC,leanette
Mantenimiento,sandra
Mantenimiento,carla
Mantenimiento,javiera
Mantenimiento,simon
Mantenimiento,vicente
Mantenimiento,francisca
